PsyDataViz - 10 Bump charts
…
baby_year <- babynames %>%
  filter(sex=="M") %>%
  filter(year>=2012, year<=2017) %>%
  select(year, name, total = n) %>%
  group_by(year) %>%
  mutate(
    rank = row_number(desc(total))
  ) %>%
  ungroup() %>%
  arrange(rank, year)

baby_year

# A tibble: 84,665 x 4
    year name  total  rank
   <dbl> <chr> <int> <int>
 1  2012 Jacob 19069     1
 2  2013 Noah  18241     1
 3  2014 Noah  19286     1
 4  2015 Noah  19613     1
 5  2016 Noah  19082     1
 6  2017 Liam  18728     1
 7  2012 Mason 18964     2
 8  2013 Jacob 18148     2
 9  2014 Liam  18451     2
10  2015 Liam  18355     2
# ... with 84,655 more rows
…
