PsyDataViz - 11 Labeling Significance
…
To make the basic boxplot, we need to turn the data into long form. We also factor the new time column as annoyingly the word ‘after’ is alphabetically earlier than ‘before’ and we want them plotted the opposite way around on the x-axis:

pdf.long <- pdf %>% pivot_longer(cols=2:3, names_to = "time")
pdf.long$time <- factor(pdf.long$time, levels=c("before","after"))
pdf.long

# A tibble: 24 x 3
   subj  time    value
   <chr> <fct>   <dbl>
 1 a     before 0.216 
 2 a     after  0.796 
 3 b     before 0.0632
 4 b     after  0.825 
 5 c     before 0.522 
 6 c     after  0.883 
 7 d     before 0.504 
 8 d     after  0.130 
 9 e     before 0.120 
10 e     after  0.138 
# i 14 more rows
…
